<?xml version="1.0" encoding="utf-8"?>
<!-- Generator: Adobe Illustrator 16.0.0, SVG Export Plug-In . SVG Version: 6.00 Build 0)  -->
<!DOCTYPE svg PUBLIC "-//W3C//DTD SVG 1.1//EN" "http://www.w3.org/Graphics/SVG/1.1/DTD/svg11.dtd">
<svg version="1.1" id="Layer_1" xmlns="http://www.w3.org/2000/svg" xmlns:xlink="http://www.w3.org/1999/xlink" x="0px" y="0px"
	 width="2048px" height="360px" viewBox="0 0 2048 360" enable-background="new 0 0 2048 360" xml:space="preserve">
<g>
	<path fill-rule="evenodd" clip-rule="evenodd" fill="#FFFFFF" d="M651.969,180.831l23.322,2.724
		c10.446,1.18,11.592,9.941,11.592,15.523v27.582H579.446v-27.582c0-5.582,1.132-14.344,11.578-15.523l23.321-2.724v-23.608H474.762
		v23.608l23.35,2.724c10.447,1.18,11.549,9.941,11.549,15.523v90.406c0,5.578-1.102,14.32-11.549,15.521l-23.35,2.736v23.594
		h139.584v-23.594l-23.321-2.736c-10.446-1.201-11.578-9.943-11.578-15.521v-27.59h107.437v27.59c0,5.578-1.146,14.32-11.592,15.521
		l-23.322,2.736v23.594h139.6v-23.594l-23.322-2.736c-10.445-1.201-11.591-9.943-11.591-15.521v-90.406
		c0-5.582,1.146-14.344,11.591-15.523l23.322-2.724v-23.608h-139.6V180.831L651.969,180.831z"/>
	<path fill-rule="evenodd" clip-rule="evenodd" fill="#FFFFFF" d="M1582.715,157.222h-172.349v23.608l20.628,2.138
		c7.303,0.914,12.135,4.055,12.135,14.236l0.028,92.279c0,5.578-1.146,14.32-11.592,15.521l-23.309,2.736v23.594l174.458-0.027
		c62.412,0,113.734-25.145,113.734-87.053C1696.449,182.367,1645.127,157.222,1582.715,157.222L1582.715,157.222z M1570.006,297.951
		l-58.459,0.029V190.578h58.459c34.51,0,46.211,16.355,46.211,53.678S1604.516,297.951,1570.006,297.951L1570.006,297.951z"/>
	<path fill-rule="evenodd" clip-rule="evenodd" fill="#FFFFFF" d="M1989.822,305.264c-11.033-1.307-14.482-8.414-17.932-13.666
		c-80.356-122.798-80.356-122.798-80.356-122.798c-5.769-8.826-9.931-11.577-18.519-11.577h-132.268v23.608l31.549,3.589
		c4.301,0.482,10.502,6.502,5.529,14.672l-59.368,96.578c-2.4,3.902-5.39,8.471-12.261,9.363l-23.615,2.709v23.594h111.528v-23.621
		l-19.203-1.934c-8.212-0.881-12.596-6.605-8.519-13.289l8.91-14.516h107.045l7.934,12.037c6.912,10.564-1.816,14.887-9.398,15.689
		l-19.72,2.012v23.621H2012v-23.594L1989.822,305.264L1989.822,305.264z M1794.236,247.182l32.944-53.615l35.081,53.615H1794.236
		L1794.236,247.182z"/>
	<path fill-rule="evenodd" clip-rule="evenodd" fill="#FFFFFF" d="M1285.779,180.831l23.322,2.724
		c10.433,1.18,11.592,9.941,11.592,15.523v87.102l-92.172-121.556c-4.19-5.593-7.766-7.401-17.68-7.401
		c-6.299,0-119.686,0-119.686,0v23.608l23.268,2.724c10.459,1.18,11.619,9.941,11.619,15.523v90.406
		c0,5.578-1.16,14.32-11.619,15.521l-23.268,2.736v23.594h111.516v-23.594l-23.338-2.736c-10.445-1.201-11.59-9.943-11.59-15.521
		v-87.111l92.157,121.557c4.149,5.592,7.751,7.406,17.667,7.406c0.601,0,0.811,0,0.811,0c4.315,0,21.925,0,84.016,0V199.078
		c0-5.582,1.146-14.344,11.578-15.523l23.309-2.724v-23.608h-111.502V180.831L1285.779,180.831z"/>
	<path fill-rule="evenodd" clip-rule="evenodd" fill="#FFFFFF" d="M941.041,151.246c-113.357,0-142.615,49.604-142.615,93.024
		c0,43.445,29.258,93.039,142.615,93.039c113.387,0,142.63-49.594,142.63-93.039C1083.671,200.85,1054.428,151.246,941.041,151.246
		L941.041,151.246z M941.041,304.133c-43.92,0-62.215-18.428-62.215-59.863c0-41.414,18.295-59.85,62.215-59.85
		c43.95,0,62.271,18.436,62.271,59.85C1003.312,285.705,984.991,304.133,941.041,304.133L941.041,304.133z"/>
	<polygon fill-rule="evenodd" clip-rule="evenodd" fill="#FFFFFF" points="136.167,331.336 110.959,307.986 238.338,293.203 
		299.941,331.336 136.167,331.336 	"/>
	<path fill-rule="evenodd" clip-rule="evenodd" fill="#FFFFFF" d="M350.845,231.336L82.512,281.627l23.308,21.605l123.581-15.58
		c-1.844-0.92-2.374-2.199-2.374-3.531c0-1.51,1.216-3.074,3.144-3.305c1.381-0.174,68.695-10.068,73.291-10.76
		c2.346-0.336,7.707-1.279,13.825-4.225c5.613-2.709,9.244-5.705,11.661-7.863c1.592-1.465,7.039-6.969,10.529-10.85
		c2.473-2.773,4.246-4.799,5.74-6.545c1.592-1.863,5.041-6.023,6.438-7.889C352.045,232.111,351.738,231.254,350.845,231.336
		L350.845,231.336z"/>
	<path fill-rule="evenodd" clip-rule="evenodd" fill="#FFFFFF" d="M392.826,172.542L57.82,258.773l20.167,18.664l103.079-19.699
		c-1.802-1.039-2.695-1.863-2.695-3.602c0-1.236,0.768-2.988,2.793-3.416l167.726-32.496c2.333-0.439,8.058-1.809,13.84-5.385
		c5.433-3.379,8.309-6.738,10.041-8.693c2.221-2.492,6.159-7.568,9.063-11.5c2.18-2.934,4.008-5.768,5.488-7.869
		c1.48-2.096,5.099-8.086,6.605-10.783C394.361,173.261,393.803,172.297,392.826,172.542L392.826,172.542z"/>
	<path fill-rule="evenodd" clip-rule="evenodd" fill="#FFFFFF" d="M348.512,75.14c4.609-1.906,26.772-11.48,31.772-13.771
		c4.917-2.235,19.747-8.896,25.208-11.354c6.047-2.73,23.672-11.012,26.324-12.262c12.402-5.941,27.708-13.245,30.822-14.921
		c0.853-0.455,2.165,0.237,1.773,1.507c-1.787,5.719-4.832,14.581-9.217,24.77c-2.178,5.041-5.516,12.547-8.393,17.268
		c-3.604,5.908-7.347,9.914-10.321,12.604c-6.187,5.566-11.341,8.596-16.688,10.691c-3.547,1.39-10.488,4.127-15.111,5.922
		c-1.131,0.411-19.817,7.422-23.629,8.65L50.475,220.891c-7.723,2.689-16.758,7.855-16.758,17.848c0,4.357,2.709,9.973,7.834,14.783
		l83.444,77.814c0,0-34.956,0-38.657,0c-0.713-2.232-1.982-5.41-3.365-7.785c-1.354-2.338-2.373-4.426-6.508-8.566
		c-3.283-3.297-6.635-6.727-7.807-7.891l-44.061-44.082C16.482,254.904,12,244.5,12,234.926c0-13.26,7.346-25.906,29.243-34.857
		L348.512,75.14L348.512,75.14z"/>
	<path fill-rule="evenodd" clip-rule="evenodd" fill="#FFFFFF" d="M384.949,119.48c4.553-1.516,12.848-4.363,15.054-5.132
		c2.222-0.796,10.781-3.925,12.263-4.524c6.158-2.318,11.981-4.525,17.932-7.047c0.963-0.37,1.955,0.363,1.495,1.411
		c-0.686,1.676-4.483,9.853-5.56,11.793c-2.71,5.028-5.139,9.608-7.891,13.896c-2.443,3.73-6.005,9.365-8.142,11.941
		c-3.729,4.469-6.717,7.415-11.982,10.99c-6.522,4.441-12.598,6.062-15.097,6.809l-243.559,65.52
		c-1.843,0.391-2.555,2.283-2.555,3.352c0,1.383,0.851,2.674,2.471,3.43l-86.293,22.455l-7.052-6.584
		c-2.611-2.359-3.743-5.586-3.743-8.031c0-6.354,4.957-9.301,12.582-11.801L384.949,119.48L384.949,119.48z"/>
</g>
</svg>
