<?xml version="1.0" encoding="utf-8"?>
<!-- Generator: Adobe Illustrator 16.0.0, SVG Export Plug-In . SVG Version: 6.00 Build 0)  -->
<!DOCTYPE svg PUBLIC "-//W3C//DTD SVG 1.1//EN" "http://www.w3.org/Graphics/SVG/1.1/DTD/svg11.dtd">
<svg version="1.1" id="Layer_1" xmlns="http://www.w3.org/2000/svg" xmlns:xlink="http://www.w3.org/1999/xlink" x="0px" y="0px"
	 width="1024px" height="1024px" viewBox="0 0 1024 1024" enable-background="new 0 0 1024 1024" xml:space="preserve">
<path fill="#E01717" d="M876,375c0-200.537-163.457-363-364-363S148,174.451,148,375c0,84.447,30.652,161.332,79,223h-0.012
	L512,1012l286-414h-0.012C846.359,536.332,876,459.465,876,375z M512,570.342c-107.812,0-195.219-87.401-195.219-195.219
	c0-107.818,87.406-195.23,195.219-195.23s195.219,87.4,195.219,195.219C707.219,482.928,619.812,570.342,512,570.342z"/>
</svg>
