<?xml version="1.0" encoding="utf-8"?>
<!-- Generator: Adobe Illustrator 17.0.0, SVG Export Plug-In . SVG Version: 6.00 Build 0)  -->
<!DOCTYPE svg PUBLIC "-//W3C//DTD SVG 1.1//EN" "http://www.w3.org/Graphics/SVG/1.1/DTD/svg11.dtd">
<svg version="1.1" id="Layer_1" xmlns="http://www.w3.org/2000/svg" xmlns:xlink="http://www.w3.org/1999/xlink" x="0px" y="0px"
	 width="1024px" height="1024px" viewBox="0 0 1024 1024" enable-background="new 0 0 1024 1024" xml:space="preserve">
<path fill="#FFFFFF" d="M869.381,181H154.619C75.979,181,12,244.063,12,322.712v378.576C12,779.937,75.979,844,154.619,844h714.761
	C948.021,844,1012,779.937,1012,701.288V322.712C1012,244.063,948.021,181,869.381,181z M78.592,322.712
	c0-1.46,0.042-2.916,0.125-4.369l319.23,319.198c27.037,27.147,62.672,42.106,100.328,42.106c18.952,0,37.415-3.682,54.875-10.943
	c17.432-7.25,33.072-17.736,46.484-31.169l341.138-341.042c3.076,8.357,4.671,17.239,4.671,26.219v378.576
	c0,41.911-34.121,76.009-76.062,76.009H154.619c-41.922,0-76.028-34.097-76.028-76.009V322.712z M552.551,590.467
	c-14.574,14.513-33.855,22.513-54.277,22.513c-20.043,0-38.463-7.79-53.267-22.529L113.705,258.679
	c12.163-7.787,26.359-11.991,40.914-11.991h714.761c7.914,0,15.788,1.246,23.282,3.653L552.551,590.467z"/>
</svg>
